<svg width="18" height="24" viewBox="0 0 18 24" fill="none" xmlns="http://www.w3.org/2000/svg">
<path d="M9 0C4.34766 0 0.5625 3.70294 0.5625 8.25458C0.5625 14.3487 4.46979 20.5624 8.40582 23.7878C8.75134 24.0709 9.24866 24.0709 9.59418 23.7878C12.384 21.5017 17.4375 15.451 17.4375 8.25458C17.4375 3.70294 13.6525 0 9 0V0ZM9.00036 21.8013C7.28338 20.1713 2.4375 14.9747 2.4375 8.25458C2.4375 4.73694 5.38147 1.875 9 1.875C12.6185 1.875 15.5625 4.73694 15.5625 8.25458C15.5625 13.3987 12.6346 18.3569 9.00036 21.8013ZM9 3.95801C6.52624 3.95801 4.51373 5.97052 4.51373 8.44427C4.51373 10.918 6.52624 12.9307 9 12.9307C11.4738 12.9307 13.4863 10.918 13.4863 8.44427C13.4863 5.97052 11.4738 3.95801 9 3.95801ZM9 11.0557C7.56006 11.0557 6.38873 9.88422 6.38873 8.44427C6.38873 7.00452 7.56006 5.83301 9 5.83301C10.4399 5.83301 11.6113 7.00452 11.6113 8.44427C11.6113 9.88422 10.4399 11.0557 9 11.0557Z" fill="#40B8EB"/>
</svg>
