<svg width="24" height="24" viewBox="0 0 24 24" fill="none" xmlns="http://www.w3.org/2000/svg">
<g clip-path="url(#clip0)">
<path d="M23.25 8.348C22.836 8.348 22.5 8.012 22.5 7.598V2.75C22.5 2.061 21.939 1.5 21.25 1.5H16.402C15.988 1.5 15.652 1.164 15.652 0.75C15.652 0.336 15.988 0 16.402 0H21.25C22.767 0 24 1.233 24 2.75V7.598C24 8.012 23.664 8.348 23.25 8.348Z" fill="#40B8EB"/>
<path d="M0.75 8.348C0.336 8.348 0 8.012 0 7.598V2.75C0 1.233 1.233 0 2.75 0H7.598C8.012 0 8.348 0.336 8.348 0.75C8.348 1.164 8.012 1.5 7.598 1.5H2.75C2.061 1.5 1.5 2.061 1.5 2.75V7.598C1.5 8.012 1.164 8.348 0.75 8.348Z" fill="#40B8EB"/>
<path d="M21.25 23.9998H16.402C15.988 23.9998 15.652 23.6638 15.652 23.2498C15.652 22.8358 15.988 22.4998 16.402 22.4998H21.25C21.939 22.4998 22.5 21.9388 22.5 21.2498V16.4019C22.5 15.9879 22.836 15.6519 23.25 15.6519C23.664 15.6519 24 15.9879 24 16.4019V21.2498C24 22.7668 22.767 23.9998 21.25 23.9998Z" fill="#40B8EB"/>
<path d="M7.598 23.9998H2.75C1.233 23.9998 0 22.7668 0 21.2498V16.4019C0 15.9879 0.336 15.6519 0.75 15.6519C1.164 15.6519 1.5 15.9879 1.5 16.4019V21.2498C1.5 21.9388 2.061 22.4998 2.75 22.4998H7.598C8.012 22.4998 8.348 22.8358 8.348 23.2498C8.348 23.6638 8.012 23.9998 7.598 23.9998Z" fill="#40B8EB"/>
<path d="M9.5 11H3.75C3.336 11 3 10.664 3 10.25V3.75C3 3.336 3.336 3 3.75 3H9.5C9.914 3 10.25 3.336 10.25 3.75V10.25C10.25 10.664 9.914 11 9.5 11ZM4.5 9.5H8.75V4.5H4.5V9.5Z" fill="#40B8EB"/>
<path d="M21.25 21H14.75C14.336 21 14 20.664 14 20.25V16.75C14 16.336 14.336 16 14.75 16C15.164 16 15.5 16.336 15.5 16.75V19.5H20.5V15.5H16.75C16.336 15.5 16 15.164 16 14.75C16 14.336 16.336 14 16.75 14H21.25C21.664 14 22 14.336 22 14.75V20.25C22 20.664 21.664 21 21.25 21Z" fill="#40B8EB"/>
<path d="M20.25 9H15.75C15.336 9 15 8.664 15 8.25V3.75C15 3.336 15.336 3 15.75 3H20.25C20.664 3 21 3.336 21 3.75V8.25C21 8.664 20.664 9 20.25 9ZM16.5 7.5H19.5V4.5H16.5V7.5Z" fill="#40B8EB"/>
<path d="M12.25 14H3.75C3.336 14 3 13.664 3 13.25C3 12.836 3.336 12.5 3.75 12.5H11.5V4.75C11.5 4.336 11.836 4 12.25 4C12.664 4 13 4.336 13 4.75V13.25C13 13.664 12.664 14 12.25 14Z" fill="#40B8EB"/>
<path d="M14.75 14C14.336 14 14 13.664 14 13.25V11.75C14 11.336 14.336 11 14.75 11H20.25C20.664 11 21 11.336 21 11.75C21 12.164 20.664 12.5 20.25 12.5H15.5V13.25C15.5 13.664 15.164 14 14.75 14Z" fill="#40B8EB"/>
<path d="M9.25 21H3.75C3.336 21 3 20.664 3 20.25V16.25C3 15.836 3.336 15.5 3.75 15.5H9.25C9.664 15.5 10 15.836 10 16.25V20.25C10 20.664 9.664 21 9.25 21ZM4.5 19.5H8.5V17H4.5V19.5Z" fill="#40B8EB"/>
<path d="M11.7501 19.021C12.1641 19.021 12.5001 18.685 12.5001 18.271V15.771C12.5001 15.357 12.1641 15.021 11.7501 15.021C11.3361 15.021 11.0001 15.356 11.0001 15.771V18.271C11.0001 18.685 11.3361 19.021 11.7501 19.021Z" fill="#40B8EB"/>
</g>
<defs>
<clipPath id="clip0">
<rect width="24" height="24" fill="white"/>
</clipPath>
</defs>
</svg>
