<svg width="30" height="30" viewBox="0 0 30 30" fill="none" xmlns="http://www.w3.org/2000/svg">
<path d="M24.6094 15.9375H14.0625V5.39062C14.0625 4.7434 13.5379 4.21875 12.8906 4.21875C5.76539 4.21875 0 9.98467 0 17.1094C0 24.2346 5.76592 30 12.8906 30C20.0159 30 25.7812 24.2341 25.7812 17.1094C25.7812 16.4621 25.2566 15.9375 24.6094 15.9375ZM12.8906 27.6562C7.07508 27.6562 2.34375 22.9249 2.34375 17.1094C2.34375 11.6899 6.4527 7.21201 11.7188 6.62719V17.1094C11.7188 17.7566 12.2434 18.2812 12.8906 18.2812H23.3728C22.788 23.5473 18.3101 27.6562 12.8906 27.6562Z" fill="#40B8EB"/>
<path d="M17.1094 0C16.4621 0 15.9375 0.524648 15.9375 1.17188V12.8906C15.9375 13.5379 16.4621 14.0625 17.1094 14.0625H28.8281C29.4754 14.0625 30 13.5379 30 12.8906C30 5.76539 24.2341 0 17.1094 0ZM18.2812 11.7188V2.40844C23.1623 2.95055 27.0495 6.83766 27.5916 11.7188H18.2812Z" fill="#40B8EB"/>
</svg>
