<svg width="24" height="24" viewBox="0 0 24 24" fill="none" xmlns="http://www.w3.org/2000/svg">
<g clip-path="url(#clip0)">
<path d="M22.2609 22.9682L20.4797 5.3432C20.4311 4.86438 20.0281 4.5 19.5469 4.5H16.5469C16.5469 2.01874 14.5282 0 12.0469 0C9.56567 0 7.54693 2.01874 7.54693 4.5H4.54693C4.06573 4.5 3.66271 4.86438 3.61419 5.3432L1.83294 22.9682C1.77728 23.5206 2.21142 24 2.76568 24H21.3282C21.8834 24 22.3166 23.5199 22.2609 22.9682ZM12.0469 1.875C13.4944 1.875 14.6719 3.05255 14.6719 4.5H9.42193C9.42193 3.05255 10.5995 1.875 12.0469 1.875ZM3.80279 22.125L5.39452 6.375H7.54693V8.25C7.54693 8.76782 7.96679 9.1875 8.48443 9.1875C9.00225 9.1875 9.42193 8.76782 9.42193 8.25V6.375H14.6719V8.25C14.6719 8.76782 15.0916 9.1875 15.6094 9.1875C16.1273 9.1875 16.5469 8.76782 16.5469 8.25V6.375H18.6995L20.2913 22.125H3.80279Z" fill="#40B8EB"/>
</g>
<defs>
<clipPath id="clip0">
<rect width="24" height="24" fill="white"/>
</clipPath>
</defs>
</svg>
