<svg width="24" height="24" viewBox="0 0 24 24" fill="none" xmlns="http://www.w3.org/2000/svg">
<g clip-path="url(#clip0)">
<path d="M18.7887 0C20.5207 0.342947 21.6471 1.55501 22.7407 2.79525C23.0927 3.19458 23.3978 3.65497 23.6372 4.12946C24.2661 5.3838 24.0737 6.66633 23.0881 7.66698C21.6002 9.17501 20.0842 10.6502 18.5728 12.13C18.1692 12.5246 17.62 12.487 17.1976 12.0642C15.7379 10.6079 14.2829 9.14682 12.8279 7.68577C12.7293 7.58712 12.6495 7.46967 12.5791 7.38041C9.83806 10.1005 7.14394 12.7689 4.4639 15.4279C5.8532 16.8044 7.22373 18.1668 8.58956 19.5245C9.08239 19.0359 9.63154 18.5051 10.1713 17.9601C11.4855 16.6353 12.7997 15.3058 14.1139 13.9857C14.6208 13.4783 15.3953 13.5957 15.6722 14.2159C15.8412 14.587 15.7614 14.9816 15.4375 15.3105C14.6771 16.0856 13.9121 16.8514 13.147 17.6218C11.8938 18.8856 10.636 20.1493 9.38747 21.4178C9.16687 21.6433 8.9228 21.7936 8.61772 21.8781C6.19583 22.5593 3.77394 23.2499 1.35205 23.9405C0.967175 24.0486 0.619849 24.0251 0.328847 23.7385C0.0284572 23.4472 -0.0137849 23.0902 0.108248 22.7003C0.173959 22.4936 0.225588 22.2775 0.281911 22.0708C0.901464 19.8487 1.51632 17.6218 2.14996 15.3997C2.21567 15.1648 2.35648 14.9205 2.53014 14.7467C6.94681 10.2931 11.3776 5.85829 15.7942 1.40467C16.4513 0.742269 17.1366 0.169125 18.08 0C18.3194 0 18.554 0 18.7887 0ZM20.4174 7.66698C20.8821 7.20659 21.3655 6.75559 21.8208 6.2717C22.1587 5.91466 22.2104 5.48246 22.0038 5.03146C21.9381 4.88112 21.863 4.73079 21.7738 4.59925C21.1214 3.65967 20.3282 2.86102 19.3848 2.21271C19.2158 2.09527 19.0187 2.00601 18.8216 1.93554C18.4836 1.80869 18.1363 1.83218 17.8688 2.06708C17.329 2.54157 16.8127 3.05364 16.3011 3.54222C17.6904 4.9375 19.0516 6.30459 20.4174 7.66698ZM17.9345 10.1193C18.2959 9.73876 18.662 9.35823 18.9999 9.00119C17.6623 7.65759 16.3105 6.29989 14.9869 4.97038C14.6255 5.33212 14.25 5.70326 13.8839 6.065C15.2216 7.4039 16.5734 8.7569 17.9345 10.1193ZM3.55334 17.3306C3.32805 18.1386 3.09337 18.9748 2.86808 19.8064C2.854 19.8674 2.90563 19.9708 2.95726 20.0225C3.29989 20.3748 3.65191 20.7178 3.98984 21.0748C4.0931 21.1829 4.18228 21.1923 4.3184 21.15C4.90979 20.9715 5.50118 20.8117 6.09257 20.6426C6.29909 20.5862 6.50561 20.5252 6.71682 20.4641C5.65137 19.4117 4.6094 18.3735 3.55334 17.3306Z" fill="white"/>
<path d="M17.3604 23.9509C15.486 23.9509 13.6116 23.9509 11.7372 23.9509C11.0984 23.9509 10.6709 23.4649 10.7695 22.8574C10.84 22.4041 11.2346 22.0909 11.7419 22.0909C12.9445 22.0863 14.1471 22.0909 15.3498 22.0909C17.8959 22.0909 20.442 22.0909 22.9882 22.0909C23.6975 22.0909 24.1626 22.6938 23.9465 23.3247C23.8103 23.7266 23.4626 23.9556 22.9835 23.9556C21.1091 23.9509 19.2347 23.9509 17.3604 23.9509Z" fill="white"/>
</g>
<defs>
<clipPath id="clip0">
<rect width="24" height="24" fill="white"/>
</clipPath>
</defs>
</svg>
