<svg width="50" height="65" viewBox="0 0 50 65" fill="none" xmlns="http://www.w3.org/2000/svg">
<rect x="1" y="1" width="48" height="48" rx="24" fill="#FFD500"/>
<path d="M50 25C50 38.8071 25 64.5 25 64.5C25 64.5 -7.95167e-09 38.8071 -5.12256e-09 25C-2.29345e-09 11.1929 11.1929 2.29345e-09 25 5.12256e-09C38.8071 7.95167e-09 50 11.1929 50 25Z" fill="#B84BFF"/>
<path d="M32.7478 13H21.9726C20.8633 13 19.961 13.9023 19.961 15.0114V16.9093H19.8764L18.1655 14.9539L13.8 18.7737L15.6067 20.8384L15.5906 20.8528V33.5933C15.5906 35.4718 17.0635 37 18.8737 37H32.7478C34.5581 37 36.0308 35.4718 36.0308 33.5933V16.4069C36.0308 14.5284 34.5581 13 32.7478 13ZM21.3672 15.0114C21.3672 14.6778 21.6388 14.4062 21.9726 14.4062H30.4189L28.2181 16.9093H21.3672V15.0114ZM18.0331 16.9382L18.829 17.8479C18.2259 18.4179 17.3761 19.2177 16.647 19.8917L15.7844 18.9059L18.0331 16.9382ZM34.6246 33.5931C34.6246 34.6964 33.7827 35.5938 32.7478 35.5938H18.8737C17.8388 35.5938 16.9969 34.6964 16.9969 33.5931V21.4789C18.0712 20.5026 19.7927 18.8731 20.3803 18.3156H28.8542L32.2913 14.4062H32.7478C33.7827 14.4062 34.6246 15.3036 34.6246 16.4069V33.5931Z" fill="white"/>
<path d="M32.5844 21.3812L31.5899 20.3867L29.4335 22.5432H22.3753L20.2189 20.3867L19.2246 21.3812L21.381 23.5376V30.5958L19.2246 32.7522L20.2189 33.7465L22.3753 31.5901H29.4335L31.5899 33.7465L32.5844 32.7522L30.4279 30.5958V23.5376L32.5844 21.3812ZM29.0217 30.1838H22.7873V23.9494H29.0217V30.1838Z" fill="white"/>
</svg>