<svg width="30" height="30" viewBox="0 0 30 30" fill="none" xmlns="http://www.w3.org/2000/svg">
<path d="M24.6846 0H11.2157C9.8291 0 8.70117 1.12793 8.70117 2.51426V4.88662H8.59543L6.45676 2.44239L1 7.21709L3.25837 9.79795L3.23823 9.81604V25.7416C3.23823 28.0897 5.07935 29.9999 7.34207 29.9999H24.6846C26.9476 29.9999 28.7885 28.0897 28.7885 25.7416V4.25857C28.7885 1.91047 26.9476 0 24.6846 0ZM10.459 2.51426C10.459 2.09724 10.7984 1.75781 11.2157 1.75781H21.7735L19.0226 4.88662H10.459V2.51426ZM6.29128 4.92278L7.28623 6.05986C6.53229 6.77237 5.47005 7.77212 4.55865 8.61464L3.48039 7.38234L6.29128 4.92278ZM27.0307 25.7414C27.0307 27.1204 25.9783 28.2421 24.6846 28.2421H7.34207C6.04844 28.2421 4.99604 27.1204 4.99604 25.7414V10.5986C6.33889 9.37819 8.49083 7.34137 9.22531 6.64443H19.8177L24.114 1.75781H24.6846C25.9783 1.75781 27.0307 2.87956 27.0307 4.25857V25.7414Z" fill="white"/>
<path d="M24.4804 10.4769L23.2374 9.23389L20.5418 11.9294H11.7191L9.02359 9.23389L7.78076 10.4769L10.4763 13.1725V21.9952L7.78076 24.6907L9.02359 25.9336L11.7191 23.238H20.5418L23.2374 25.9336L24.4804 24.6907L21.7849 21.9952V13.1725L24.4804 10.4769ZM20.0271 21.4802H12.2341V13.6872H20.0271V21.4802Z" fill="white"/>
</svg>
