<svg width="201" height="200" viewBox="0 0 201 200" fill="none" xmlns="http://www.w3.org/2000/svg">
<path d="M89.842 108.444C92.4329 108.884 94.3311 111.124 94.3311 113.751V113.742C94.3311 111.137 96.1927 108.884 98.7592 108.444C108.771 106.729 111.046 99.2921 111.525 96.8873L110.696 96.5669C109.712 96.193 109.033 95.2317 109.03 94.1468L109.002 82.6509C104.881 85.4936 99.9448 87.1064 94.6958 87.1064C89.3354 87.1064 84.4175 85.6828 80.2656 83.0308V94.1316C80.2656 95.2043 79.6064 96.1671 78.6054 96.5562L77.4961 96.985C77.7601 98.8908 79.466 106.682 89.842 108.444Z" fill="#FFBEAB"/>
<path d="M92.7198 87.0408C88.1254 86.7341 83.9017 85.3547 80.2656 83.0308V94.1315C80.2656 95.2042 79.6064 96.167 78.6054 96.5561L77.4961 96.9849C77.7601 98.8907 79.466 106.682 89.842 108.444C90.965 108.635 91.9568 109.164 92.7198 109.917V87.0408Z" fill="#F7AF9F"/>
<path d="M123.962 43.9116C123.266 44.287 122.473 44.5006 121.632 44.5006C120.965 44.5006 120.314 44.4289 119.685 44.2961V63.0339C119.685 63.243 119.674 63.4505 119.67 63.658C126.489 64.691 131.83 59.7624 131.83 53.7123C131.83 48.9974 128.596 44.9843 123.962 43.9116Z" fill="#FFBEAB"/>
<path d="M127.734 45.6374C126.639 44.8348 125.366 44.2366 123.962 43.9116C123.268 44.287 122.474 44.5006 121.634 44.5006C120.965 44.5006 120.315 44.4289 119.687 44.2961V63.0339C119.687 63.243 119.674 63.4505 119.67 63.658C122.793 64.131 125.603 63.3513 127.734 61.7888V45.6374Z" fill="#F7AF9F"/>
<path d="M69.0707 44.3494H65.8145C65.2163 44.3494 64.6349 44.2747 64.0765 44.1465C60.0482 45.5457 56.8301 49.1682 56.8301 53.6329C56.8301 59.7242 62.2012 64.6985 69.0859 63.6564C69.0798 63.4473 69.0707 63.2383 69.0707 63.0277V44.3494Z" fill="#FFBEAB"/>
<path d="M69.0707 61.8207C66.4874 59.9592 64.8791 56.9639 64.8791 53.6329C64.8791 50.3828 66.5881 47.5843 69.0707 45.7593V44.3494H65.8145C65.2163 44.3494 64.6349 44.2747 64.0765 44.1465C60.0482 45.5457 56.8301 49.1682 56.8301 53.6329C56.8301 59.7242 62.2012 64.6985 69.0859 63.6564C69.0798 63.4473 69.0707 63.2383 69.0707 63.0292V61.8207Z" fill="#F7AF9F"/>
<path d="M112.659 33.2642H111.415C108.321 38.5559 102.589 42.1173 96.0159 42.1173H68.7012V63.0524C68.7012 76.2558 79.0466 88.3148 94.696 88.3148C108.626 88.3148 119.958 76.9821 119.958 63.0524V41.9174C115.91 41.0583 112.823 37.5198 112.659 33.2642Z" fill="#FFCDBF"/>
<path d="M80.6473 63.0522V42.1172H68.7012V63.0522C68.7012 76.2557 79.0466 88.3147 94.696 88.3147C96.6812 88.3147 98.6099 88.0767 100.464 87.6418C88.3301 84.9455 80.6473 74.4261 80.6473 63.0522Z" fill="#FFBEAB"/>
<path d="M118.317 11.6806C115.903 11.8652 113.688 10.3485 113.224 7.97119C112.441 3.97034 110.46 0 102.721 0C100.08 0 78.8992 0 75.8734 0C66.0192 0 58.0312 7.98798 58.0312 17.8421V37.4222C58.0312 41.571 61.3943 44.9341 65.5432 44.9341H96.0165C102.831 44.9341 108.751 41.1102 111.754 35.4935C111.988 35.0571 112.649 35.228 112.649 35.7208C112.649 40.7883 116.794 44.9341 121.86 44.9341C124.517 44.9341 126.69 42.7612 126.69 40.1047V19.6716C126.691 14.8575 122.49 11.3586 118.317 11.6806Z" fill="#576574"/>
<path d="M70.2078 37.4222V17.8421C70.2078 7.98798 78.1957 0 88.0483 0C82.5292 0 77.2695 0 75.8734 0C66.0192 0 58.0312 7.98798 58.0312 17.8421V37.4222C58.0312 41.571 61.3943 44.9341 65.5432 44.9341H77.7197C73.5708 44.9341 70.2078 41.571 70.2078 37.4222Z" fill="#3E4B5A"/>
<path d="M147.016 110.632L121.6 100.789C113.775 119.281 94.3416 117.907 94.3416 117.907C94.3416 117.907 75.0972 119.687 67.3655 100.912L42.2938 110.632C42.2938 110.632 28.2344 116.412 28.2344 132.44V195.315C28.2344 197.903 30.3325 200 32.9203 200H138.645L159.074 147.561C159.515 147.307 159.785 146.838 159.785 146.33V124.499C156.311 114.454 147.016 110.632 147.016 110.632Z" fill="#FF656F"/>
<path d="M40.3087 195.315V126.001C40.3087 117.422 44.3354 111.781 48.08 108.389L42.2938 110.632C42.2938 110.632 28.2344 116.412 28.2344 132.44V195.315C28.2344 197.903 30.3325 200 32.9203 200H44.9931C42.4052 200 40.3087 197.902 40.3087 195.315Z" fill="#FF4444"/>
<path d="M50.0332 169.403H138.646V157.641C138.647 157.643 138.649 157.643 138.65 157.645C134.289 155.081 130.853 151.089 128.999 146.329H50.0332V169.403Z" fill="#FECA57"/>
<path d="M50.0332 146.329H63.8745V169.401H50.0332V146.329Z" fill="#F4B537"/>
<path d="M90.1567 107.631C79.114 105.754 78.6043 96.5542 78.6043 96.5542L66.9512 101.072C74.3868 120.961 94.3407 119.114 94.3407 119.114V112.577C94.3407 110.128 92.5707 108.041 90.1567 107.631Z" fill="#FF4444"/>
<path d="M76.9152 105.809C75.5266 103.399 76.6573 100.312 79.2513 99.3068C78.6714 97.7214 78.6043 96.5557 78.6043 96.5557L66.9512 101.072C74.3853 120.961 94.3407 119.114 94.3407 119.114V118.438C88.8521 117.219 81.65 114.022 76.9152 105.809Z" fill="#FC2D39"/>
<path d="M110.695 96.5668C110.608 96.5332 110.525 96.489 110.443 96.4478C110.193 98.0698 108.476 105.917 98.4693 107.631C96.0767 108.041 94.3418 110.143 94.3418 112.57V119.115C94.3418 119.115 114.502 120.541 122.023 100.954L110.695 96.5668Z" fill="#FF4444"/>
<path d="M102.089 112.569C102.089 110.143 103.824 108.041 106.216 107.631C113.289 106.419 116.218 102.145 117.418 99.1684L110.696 96.5668C110.608 96.5332 110.525 96.489 110.443 96.4478C110.193 98.0698 108.476 105.917 98.4693 107.631C96.0767 108.041 94.3418 110.143 94.3418 112.57V119.115C94.3418 119.115 97.6514 119.35 102.089 118.324V112.569Z" fill="#FC2D39"/>
<path d="M76.0196 126.341H67.4014C64.8563 126.341 62.7734 128.424 62.7734 130.969V132.579C62.7734 135.124 64.8563 137.207 67.4014 137.207H76.0196C78.5648 137.207 80.6476 135.124 80.6476 132.579V130.969C80.6476 128.424 78.5648 126.341 76.0196 126.341Z" fill="#E4EAF8"/>
<path d="M73.2257 132.579V130.969C73.2257 128.736 74.8264 126.861 76.9366 126.434C76.6406 126.373 76.3339 126.341 76.0196 126.341H67.4014C64.8563 126.341 62.7734 128.424 62.7734 130.969V132.579C62.7734 135.124 64.8563 137.207 67.4014 137.207H76.0196C76.3339 137.207 76.6406 137.175 76.9366 137.114C74.8264 136.685 73.2257 134.809 73.2257 132.579Z" fill="#C7D2E5"/>
<path d="M113.873 134.791H107.434C105.766 134.791 104.416 133.441 104.416 131.773C104.416 130.107 105.766 128.755 107.434 128.755H113.873C115.54 128.755 116.892 130.107 116.892 131.773C116.892 133.441 115.54 134.791 113.873 134.791Z" fill="#FF4444"/>
<path d="M149.434 160.728C145.513 160.635 141.832 159.517 138.645 157.642V200H157.842C159.757 200 161.31 198.447 161.31 196.532V157.674C157.837 159.705 153.771 160.831 149.434 160.728Z" fill="#E4EAF8"/>
<path d="M149.977 160.732C149.796 160.732 149.616 160.733 149.434 160.728C145.513 160.637 141.832 159.518 138.645 157.642V200H149.977V160.732Z" fill="#C7D2E5"/>
<path d="M149.977 169.603C148.311 169.603 146.959 170.954 146.959 172.621V200H152.995V172.621C152.995 170.954 151.643 169.603 149.977 169.603Z" fill="#BAC7DB"/>
<path d="M149.434 161.586C137.491 161.299 127.755 151.35 127.486 139.162C127.305 130.874 131.425 123.558 137.725 119.374C138.776 118.675 140.171 119.472 140.171 120.752V140.561C140.171 141.08 140.441 141.559 140.882 141.818L149.267 146.759C149.706 147.018 150.249 147.018 150.689 146.759L159.073 141.818C159.514 141.559 159.785 141.08 159.785 140.561V120.753C159.785 119.452 161.201 118.687 162.269 119.4C168.413 123.498 172.474 130.58 172.474 138.632C172.474 151.497 162.107 161.891 149.434 161.586Z" fill="#C7D2E5"/>
<path d="M138.82 139.161C138.755 136.207 139.239 133.38 140.171 130.77V120.753C140.171 119.471 138.776 118.676 137.725 119.375C131.425 123.559 127.305 130.874 127.486 139.161C127.755 151.35 137.491 161.299 149.434 161.586C151.589 161.637 153.673 161.373 155.655 160.847C146.161 158.311 139.049 149.552 138.82 139.161Z" fill="#BAC7DB"/>
<path d="M97.0692 117.865C95.38 117.98 94.3424 117.908 94.3424 117.908C94.3424 117.908 93.2957 118.004 91.5943 117.914C91.4219 118.303 91.3242 118.732 91.3242 119.185V200H97.3621V119.185C97.3606 118.712 97.2538 118.267 97.0692 117.865Z" fill="#FF4444"/>
<path d="M53.052 200V139.925C53.052 138.259 51.7016 136.907 50.0338 136.907C48.3676 136.907 47.0156 138.259 47.0156 139.925V200H53.052Z" fill="#FF4444"/>
</svg>
