<svg width="24" height="24" viewBox="0 0 24 24" fill="none" xmlns="http://www.w3.org/2000/svg">
<g clip-path="url(#clip0)">
<path d="M11.9999 18.5311C8.96698 18.5311 6.5 16.0641 6.5 13.0312C6.5 9.99823 8.96698 7.53125 11.9999 7.53125C15.0329 7.53125 17.4999 9.99823 17.4999 13.0312C17.4999 16.0641 15.0329 18.5311 11.9999 18.5311ZM11.9999 9.03125C9.79388 9.03125 8 10.8251 8 13.0312C8 15.2372 9.79388 17.0311 11.9999 17.0311C14.206 17.0311 15.9999 15.2372 15.9999 13.0312C15.9999 10.8251 14.206 9.03125 11.9999 9.03125Z" fill="#40B8EB"/>
<path d="M21 21.5312H2.75006C1.23303 21.5312 0 20.2983 0 18.7813V8.28131C0 6.76428 1.23303 5.53125 2.75006 5.53125H6.53705L7.27698 4.05121C7.74591 3.11426 8.68799 2.53125 9.73608 2.53125H14.1671C15.2811 2.53125 16.277 3.19629 16.706 4.22333L17.25 5.53125H21.2499C22.767 5.53125 24 6.76428 24 8.28131V18.7813C24 20.4022 22.4191 21.5312 21 21.5312ZM2.75006 7.03125C2.06104 7.03125 1.5 7.59229 1.5 8.28131V18.7813C1.5 19.4703 2.06104 20.0312 2.75006 20.0312H21C21.757 20.0312 22.5 19.4123 22.5 18.7813V8.28131C22.5 7.59229 21.939 7.03125 21.2499 7.03125H16.7499C16.4471 7.03125 16.1741 6.84924 16.058 6.57019L15.3201 4.80121C15.1251 4.33319 14.673 4.03125 14.166 4.03125H9.73608C9.26001 4.03125 8.83099 4.2962 8.61804 4.72229L7.67102 6.61633C7.54395 6.8703 7.28394 7.03125 6.99994 7.03125H2.75006Z" fill="#40B8EB"/>
</g>
<defs>
<clipPath id="clip0">
<rect width="24" height="24" fill="white"/>
</clipPath>
</defs>
</svg>