<svg width="24" height="24" viewBox="0 0 24 24" fill="none" xmlns="http://www.w3.org/2000/svg">
<path d="M7.19366 4.88977C7.19366 3.6084 6.15436 2.5658 4.87665 2.5658C3.59839 2.5658 2.55908 3.6084 2.55908 4.88977C2.55908 6.17114 3.59839 7.21375 4.87665 7.21375C6.15436 7.21375 7.19366 6.17114 7.19366 4.88977ZM3.96533 4.88977C3.96533 4.38586 4.37402 3.97607 4.87665 3.97607C5.37854 3.97607 5.78741 4.38586 5.78741 4.88977C5.78741 5.39368 5.37854 5.80365 4.87665 5.80365C4.37402 5.80365 3.96533 5.39368 3.96533 4.88977Z" fill="white"/>
<path d="M19.1245 11.2952H19.0959C16.4198 11.3102 14.2476 13.4978 14.2476 16.1845C14.2476 17.6629 14.9793 18.7859 15.7945 19.9008C15.7945 19.9008 17.722 22.5372 17.7599 22.5899H6.08624C4.9162 22.5899 3.96515 21.6357 3.96515 20.463C3.96515 19.2902 4.9162 18.336 6.08624 18.336H8.70703C10.6518 18.336 12.2344 16.749 12.2344 14.799C12.2344 12.8487 10.6518 11.2617 8.70703 11.2617H6.26349L8.20551 8.60596C9.02069 7.49103 9.75238 6.36768 9.75238 4.88983C9.75238 2.19379 7.56519 0 4.87683 0H4.84735L4.84589 0.000549319C2.17126 0.0168457 0 2.20404 0 4.88983C0 6.36823 0.731689 7.49103 1.54688 8.60596L4.52948 12.672H8.70703C9.87653 12.672 10.8281 13.6262 10.8281 14.799C10.8281 15.9716 9.87653 16.9259 8.70703 16.9259H6.08624C4.14093 16.9259 2.5589 18.5127 2.5589 20.463C2.5589 22.4132 4.14093 24 6.08624 24H19.4559L22.4531 19.9008C23.2683 18.7859 24 17.6629 24 16.1845C24 13.4885 21.8128 11.2952 19.1245 11.2952ZM2.68085 7.77228C1.98322 6.81848 1.40625 5.94324 1.40625 4.88983C1.40625 2.97107 2.96301 1.41064 4.87646 1.41064L4.89001 1.4101C6.79688 1.4176 8.34613 2.97583 8.34613 4.88983C8.34613 5.94324 7.76898 6.81848 7.07153 7.77209L4.87445 10.7772C4.86182 10.7598 2.68085 7.77228 2.68085 7.77228ZM21.3192 19.067L19.1217 22.0719C19.1096 22.0545 16.9285 19.067 16.9285 19.067C16.231 18.1132 15.6539 17.2379 15.6539 16.1845C15.6539 14.2663 17.2106 12.7053 19.1235 12.7053H19.1373C21.0445 12.7123 22.5938 14.2705 22.5938 16.1845C22.5938 17.2379 22.0168 18.1132 21.3192 19.067Z" fill="white"/>
<path d="M19.1237 13.8607C17.8459 13.8607 16.8066 14.9031 16.8066 16.1845C16.8066 17.4659 17.8459 18.5085 19.1237 18.5085C20.4019 18.5085 21.4412 17.4659 21.4412 16.1845C21.4412 14.9033 20.4019 13.8607 19.1237 13.8607ZM19.1237 17.0984C18.6218 17.0984 18.2129 16.6884 18.2129 16.1845C18.2129 15.6806 18.6218 15.2708 19.1237 15.2708C19.6263 15.2708 20.035 15.6806 20.035 16.1845C20.035 16.6884 19.6263 17.0984 19.1237 17.0984Z" fill="white"/>
</svg>
