<svg width="88" height="88" viewBox="0 0 88 88" fill="none" xmlns="http://www.w3.org/2000/svg">
<g filter="url(#filter0_d)">
<rect x="20" y="20" width="48" height="48" rx="24" fill="#FFD500"/>
</g>
<path d="M69 44C69 57.8071 44 83.5 44 83.5C44 83.5 19 57.8071 19 44C19 30.1929 30.1929 19 44 19C57.8071 19 69 30.1929 69 44Z" fill="#FFD500"/>
<path d="M33.0305 54.9695C34.4046 56.3434 36.6286 56.3436 38.0026 54.9695L43.0018 49.9706L43.996 50.9648L44.9905 49.9706L43.0016 47.9817L44.0015 46.9817L46.4553 49.4357C45.8401 51.1703 46.2252 53.1832 47.6107 54.5687C49.0798 56.038 51.3274 56.4084 53.1993 55.5183L54.0991 55.0906L51.0912 52.0829L52.0857 51.0884L55.0934 54.0961L55.5211 53.1965C56.4154 51.3159 56.0338 49.0701 54.5717 47.608C53.186 46.2222 51.1731 45.8373 49.4385 46.4526L46.9847 43.9986L52.1404 38.8429L53.3275 40.0299L55.9792 34.7263L53.2738 32.0207L47.9702 34.6724L49.1573 35.8595L44.0015 41.0154L41.5475 38.5614C42.1628 36.827 41.7777 34.814 40.3921 33.4284C38.93 31.9663 36.684 31.5845 34.8035 32.4788L33.9039 32.9066L36.9116 35.9144L35.9172 36.9089L32.9095 33.901L32.4816 34.8006C31.5875 36.6813 31.9691 38.9273 33.4312 40.3894C34.8096 41.7676 36.8194 42.1637 38.5642 41.5448L41.0182 43.9986L40.0184 44.9985L38.0295 43.0096L37.0351 44.0039L38.0295 44.9983L33.0305 49.9973C31.6567 51.3713 31.6563 53.5953 33.0305 54.9695ZM53.5773 48.6024C54.365 49.3899 54.712 50.4981 54.5587 51.5728L52.0857 49.0995L49.1023 52.0829L51.5755 54.5559C50.5009 54.7092 49.3929 54.362 48.6052 53.5745C47.2345 52.2036 47.2345 49.9731 48.6052 48.6022C49.9759 47.2315 52.2063 47.2315 53.5773 48.6024ZM51.1462 35.8595L50.3443 35.0577L52.9961 33.7318L54.2683 35.004L52.9424 37.6558L52.1406 36.854L45.9902 43.0043L44.9958 42.0097L51.1462 35.8595ZM34.4256 39.3949C33.6379 38.6072 33.2909 37.4992 33.4442 36.4246L35.9172 38.8978L38.9005 35.9144L36.4273 33.4412C37.502 33.288 38.6101 33.6351 39.3977 34.4229C40.7686 35.7936 40.7686 38.024 39.3977 39.3949C38.0269 40.7657 35.7965 40.7657 34.4256 39.3949ZM40.3921 40.3894C40.561 40.2206 40.7146 40.0422 40.8537 39.8564L48.1436 47.1463C47.9579 47.2855 47.7796 47.4391 47.6107 47.608C47.4419 47.7768 47.2883 47.9549 47.1491 48.1408L39.8593 40.851C40.0451 40.7118 40.2233 40.5582 40.3921 40.3894ZM42.0126 44.993L43.0071 45.9875L42.0073 46.9872L41.0129 45.9928L42.0126 44.993ZM34.025 50.9918L39.024 45.9928L42.0073 48.9761L37.0081 53.9751C36.184 54.7994 34.8495 54.7996 34.025 53.9751C33.2006 53.1508 33.2004 51.8163 34.025 50.9918Z" fill="white"/>
<path d="M38.9144 48L40 49.0856L35.0856 54L34 52.9146L38.9144 48Z" fill="white"/>
<defs>
<filter id="filter0_d" x="0" y="0" width="88" height="88" filterUnits="userSpaceOnUse" color-interpolation-filters="sRGB">
<feFlood flood-opacity="0" result="BackgroundImageFix"/>
<feColorMatrix in="SourceAlpha" type="matrix" values="0 0 0 0 0 0 0 0 0 0 0 0 0 0 0 0 0 0 127 0"/>
<feOffset/>
<feGaussianBlur stdDeviation="10"/>
<feColorMatrix type="matrix" values="0 0 0 0 1 0 0 0 0 0.835294 0 0 0 0 0 0 0 0 1 0"/>
<feBlend mode="normal" in2="BackgroundImageFix" result="effect1_dropShadow"/>
<feBlend mode="normal" in="SourceGraphic" in2="effect1_dropShadow" result="shape"/>
</filter>
</defs>
</svg>
