<svg width="100" height="100" viewBox="0 0 100 100" fill="none" xmlns="http://www.w3.org/2000/svg">
<circle cx="50" cy="50" r="50" fill="#00D756"/>
<path d="M79.2949 27.6523C78.3695 26.7687 76.8857 26.7847 75.9806 27.6885L36.1719 67.4381L24.0195 55.3037C23.1146 54.4 21.6304 54.3839 20.7051 55.2676C19.7797 56.1512 19.763 57.6002 20.6681 58.5038L34.496 72.3113C34.9294 72.7447 35.5297 73 36.171 73C36.7831 73 37.3916 72.7668 37.8474 72.3115L79.3318 30.8886C80.237 29.9849 80.2204 28.5361 79.2949 27.6523Z" fill="white"/>
</svg>
