<svg width="30" height="30" viewBox="0 0 30 30" fill="none" xmlns="http://www.w3.org/2000/svg">
<g clip-path="url(#clip0)">
<path d="M9.28711 11.6748C9.28711 12.3463 8.74283 12.8906 8.07129 12.8906C7.39975 12.8906 6.85547 12.3463 6.85547 11.6748C6.85547 11.0033 7.39975 10.459 8.07129 10.459C8.74283 10.459 9.28711 11.0033 9.28711 11.6748Z" fill="white"/>
<path d="M22.7041 11.6748C22.7041 12.3463 22.1598 12.8906 21.4883 12.8906C20.8167 12.8906 20.2725 12.3463 20.2725 11.6748C20.2725 11.0033 20.8167 10.459 21.4883 10.459C22.1598 10.459 22.7041 11.0033 22.7041 11.6748Z" fill="white"/>
<path d="M24.9039 17.8587C25.0477 17.5175 25.1273 17.1426 25.1273 16.7496V16.2126H26.7064V10.1699C26.7064 8.89824 25.9591 7.798 24.8806 7.28462L22.0965 0H7.78633L5.00221 7.28462C3.92372 7.798 3.17642 8.89824 3.17642 10.1699V16.2126H4.75548V16.7496C4.75548 17.1426 4.83513 17.5175 4.97887 17.8587H0V23.27H5.51651L12.9852 27.0255L7.06993 30H10.9827L14.9414 28.0092L18.9001 30H22.8127L16.8977 27.0255L24.3663 23.27H30V17.8587H24.9039ZM8.99643 1.75781H20.8864L22.8811 6.97632H7.00195L8.99643 1.75781ZM4.93423 14.4548V10.1699C4.93423 9.3782 5.57831 8.73413 6.37001 8.73413H23.5126C24.3045 8.73413 24.9486 9.3782 24.9486 10.1699V14.4548H18.539V10.7959H11.3438V14.4548H4.93423ZM23.3695 16.2126V16.7496C23.3695 17.3611 22.8719 17.8587 22.2604 17.8587C21.649 17.8587 21.1514 17.3611 21.1514 16.7496V16.2126H23.3695ZM19.3936 16.2126V16.7496C19.3936 17.1426 19.4733 17.5175 19.617 17.8587H10.2658C10.4095 17.5175 10.4892 17.1426 10.4892 16.7496V16.2126H19.3936ZM13.1017 14.4548V12.5537H16.7812V14.4548H13.1017ZM8.73138 16.2126V16.7496C8.73138 17.3611 8.2338 17.8587 7.62245 17.8587C7.01088 17.8587 6.51329 17.3611 6.51329 16.7496V16.2126H8.73138ZM14.9414 26.0417L9.42924 23.2697H20.4536L14.9414 26.0417ZM28.2422 21.5119H1.75781V19.6163H28.2422V21.5119Z" fill="white"/>
</g>
<defs>
<clipPath id="clip0">
<rect width="30" height="30" fill="white"/>
</clipPath>
</defs>
</svg>
