<svg width="24" height="24" viewBox="0 0 24 24" fill="none" xmlns="http://www.w3.org/2000/svg">
<path d="M13.3258 12L23.7254 1.60042C24.0915 1.23432 24.0915 0.640699 23.7254 0.274605C23.3593 -0.0915351 22.7657 -0.0915351 22.3996 0.274605L12 10.6742L1.60042 0.274605C1.23428 -0.0915351 0.640699 -0.0915351 0.274605 0.274605C-0.0915351 0.640699 -0.0915351 1.23432 0.274605 1.60042L10.6742 12L0.274605 22.3996C-0.0915351 22.7657 -0.0915351 23.3593 0.274605 23.7254C0.640699 24.0915 1.23428 24.0916 1.60042 23.7254L12 13.3258L22.3996 23.7254C22.7657 24.0915 23.3593 24.0916 23.7254 23.7254C24.0915 23.3593 24.0915 22.7657 23.7254 22.3996L13.3258 12Z" fill="white"/>
</svg>
